{
  "stats": {
    "suites": 1,
    "tests": 1,
    "passes": 1,
    "pending": 0,
    "failures": 0,
    "start": "2020-12-08T00:36:17.259Z",
    "end": "2020-12-08T00:36:21.814Z",
    "duration": 4555,
    "testsRegistered": 1,
    "passPercent": 100,
    "pendingPercent": 0,
    "other": 0,
    "hasOther": false,
    "skipped": 0,
    "hasSkipped": false
  },
  "results": [
    {
      "uuid": "3e14b64c-b629-4cc6-b942-82f5ee0c70bb",
      "title": "",
      "fullFile": "cypress\\integration\\mytest\\main.spec.js",
      "file": "cypress\\integration\\mytest\\main.spec.js",
      "beforeHooks": [],
      "afterHooks": [],
      "tests": [],
      "suites": [
        {
          "uuid": "2d4cb999-8177-4062-94df-0bf492cc27c9",
          "title": "obtener denuncias",
          "fullFile": "",
          "file": "",
          "beforeHooks": [],
          "afterHooks": [],
          "tests": [
            {
              "title": "Visitando la pagina",
              "fullTitle": "obtener denuncias Visitando la pagina",
              "timedOut": null,
              "duration": 2400,
              "state": "passed",
              "speed": "slow",
              "pass": true,
              "fail": false,
              "pending": false,
              "context": null,
              "code": "cy.visit(\"https://www.gestiondefiscalias.gob.ec/siaf/informacion/web/noticiasdelito/index.php\");\ncy.get(\"#pwd\").type(\"0804539104\");\ncy.get('input[value=\"Buscar Denuncia\"]').click();\ncy.get(\"#resultados\").children(); // Cypress.Commands.add(\"clickRecaptcha\", () => {\n//   cy.window().then((win) => {\n//     win.document\n//       .querySelector(\"iframe[src*='recaptcha']\")\n//       .contentDocument.getElementById(\"recaptcha-token\")\n//       .click();\n//   });\n// });",
              "err": {},
              "uuid": "500232df-93bf-4b5d-809c-be7fedf0a285",
              "parentUUID": "2d4cb999-8177-4062-94df-0bf492cc27c9",
              "isHook": false,
              "skipped": false
            }
          ],
          "suites": [],
          "passes": [
            "500232df-93bf-4b5d-809c-be7fedf0a285"
          ],
          "failures": [],
          "pending": [],
          "skipped": [],
          "duration": 2400,
          "root": false,
          "rootEmpty": false,
          "_timeout": 2000
        }
      ],
      "passes": [],
      "failures": [],
      "pending": [],
      "skipped": [],
      "duration": 0,
      "root": true,
      "rootEmpty": true,
      "_timeout": 2000
    }
  ],
  "meta": {
    "mocha": {
      "version": "7.0.1"
    },
    "mochawesome": {
      "options": {
        "quiet": false,
        "reportFilename": "mochawesome",
        "saveHtml": false,
        "saveJson": true,
        "consoleReporter": "spec",
        "useInlineDiffs": false,
        "code": true
      },
      "version": "6.2.1"
    },
    "marge": {
      "options": {
        "id": "default",
        "reportDir": "cypress/reports/mocha",
        "quite": true,
        "overwrite": false,
        "html": false,
        "json": true
      },
      "version": "5.1.0"
    }
  }
}